Weight,Height,Energy,Connections,Nb Drops,Nb Breaks
40,10,4,1,10,10
60,10,6,3,10,1
60,20,12,3,10,2
60,40,24,3,10,4
60,50,30,3,10,5
60,100,60,3,3,3
80,60,48,5,10,0
80,100,80,5,10,4
80,120,96,5,3,3
100,100,100,8,10,0
100,120,120,8,9,1
100,140,140,8,10,0
100,180,180,8,10,6
100,220,220,8,4,3
120,40,48,12,4,0
120,60,72,12,3,0
120,220,264,12,10,4
