%!PS-Adobe-3.0 EPSF-3.0
%%BoundingBox: 18 2 388 312
%%HiResBoundingBox: 18.204 2.616 387.024 311.478
%%Title: Figure 1
%%Creator: GL2PS 1.4.2, (C) 1999-2020 C. Geuzaine
%%For: Octave
%%CreationDate: Mon Apr 15 10:22:01 2024
%%LanguageLevel: 3
%%DocumentData: Clean7Bit
%%Pages: 1
%%EndComments
%%BeginProlog
/gl2psdict 64 dict def gl2psdict begin
/tryPS3shading false def % set to false to force subdivision
/rThreshold 0.064 def % red component subdivision threshold
/gThreshold 0.034 def % green component subdivision threshold
/bThreshold 0.1 def % blue component subdivision threshold
/BD { bind def } bind def
/C  { setrgbcolor } BD
/G  { 0.082 mul exch 0.6094 mul add exch 0.3086 mul add neg 1.0 add setgray } BD
/W  { setlinewidth } BD
/LC  { setlinecap } BD
/LJ  { setlinejoin } BD
/FC { findfont exch /SH exch def SH scalefont setfont } BD
/SW { dup stringwidth pop } BD
/S  { FC moveto show } BD
/SBC{ FC moveto SW -2 div 0 rmoveto show } BD
/SBR{ FC moveto SW neg 0 rmoveto show } BD
/SCL{ FC moveto 0 SH -2 div rmoveto show } BD
/SCC{ FC moveto SW -2 div SH -2 div rmoveto show } BD
/SCR{ FC moveto SW neg SH -2 div rmoveto show } BD
/STL{ FC moveto 0 SH neg rmoveto show } BD
/STC{ FC moveto SW -2 div SH neg rmoveto show } BD
/STR{ FC moveto SW neg SH neg rmoveto show } BD
/FCT { FC translate 0 0 } BD
/SR  { gsave FCT moveto rotate show grestore } BD
/SRX  { gsave FCT moveto rotate xshow grestore } BD
/SBCR{ gsave FCT moveto rotate SW -2 div 0 rmoveto show grestore } BD
/SBRR{ gsave FCT moveto rotate SW neg 0 rmoveto show grestore } BD
/SCLR{ gsave FCT moveto rotate 0 SH -2 div rmoveto show grestore} BD
/SCCR{ gsave FCT moveto rotate SW -2 div SH -2 div rmoveto show grestore} BD
/SCRR{ gsave FCT moveto rotate SW neg SH -2 div rmoveto show grestore} BD
/STLR{ gsave FCT moveto rotate 0 SH neg rmoveto show grestore } BD
/STCR{ gsave FCT moveto rotate SW -2 div SH neg rmoveto show grestore } BD
/STRR{ gsave FCT moveto rotate SW neg SH neg rmoveto show grestore } BD
/P  { newpath 0.0 360.0 arc closepath fill } BD
/LS { newpath moveto } BD
/L  { lineto } BD
/LE { lineto stroke } BD
/T  { newpath moveto lineto lineto closepath fill } BD
/STshfill {
      /b1 exch def /g1 exch def /r1 exch def /y1 exch def /x1 exch def
      /b2 exch def /g2 exch def /r2 exch def /y2 exch def /x2 exch def
      /b3 exch def /g3 exch def /r3 exch def /y3 exch def /x3 exch def
      gsave << /ShadingType 4 /ColorSpace [/DeviceRGB]
      /DataSource [ 0 x1 y1 r1 g1 b1 0 x2 y2 r2 g2 b2 0 x3 y3 r3 g3 b3 ] >>
      shfill grestore } BD
/Tm { 3 -1 roll 8 -1 roll 13 -1 roll add add 3 div
      3 -1 roll 7 -1 roll 11 -1 roll add add 3 div
      3 -1 roll 6 -1 roll 9 -1 roll add add 3 div C T } BD
/STsplit {
      4 index 15 index add 0.5 mul
      4 index 15 index add 0.5 mul
      4 index 15 index add 0.5 mul
      4 index 15 index add 0.5 mul
      4 index 15 index add 0.5 mul
      5 copy 5 copy 25 15 roll
      9 index 30 index add 0.5 mul
      9 index 30 index add 0.5 mul
      9 index 30 index add 0.5 mul
      9 index 30 index add 0.5 mul
      9 index 30 index add 0.5 mul
      5 copy 5 copy 35 5 roll 25 5 roll 15 5 roll
      4 index 10 index add 0.5 mul
      4 index 10 index add 0.5 mul
      4 index 10 index add 0.5 mul
      4 index 10 index add 0.5 mul
      4 index 10 index add 0.5 mul
      5 copy 5 copy 40 5 roll 25 5 roll 15 5 roll 25 5 roll
      STnoshfill STnoshfill STnoshfill STnoshfill } BD
/STnoshfill {
      2 index 8 index sub abs rThreshold gt
      { STsplit }
      { 1 index 7 index sub abs gThreshold gt
        { STsplit }
        { dup 6 index sub abs bThreshold gt
          { STsplit }
          { 2 index 13 index sub abs rThreshold gt
            { STsplit }
            { 1 index 12 index sub abs gThreshold gt
              { STsplit }
              { dup 11 index sub abs bThreshold gt
                { STsplit }
                { 7 index 13 index sub abs rThreshold gt
                  { STsplit }
                  { 6 index 12 index sub abs gThreshold gt
                    { STsplit }
                    { 5 index 11 index sub abs bThreshold gt
                      { STsplit }
                      { Tm }
                      ifelse }
                    ifelse }
                  ifelse }
                ifelse }
              ifelse }
            ifelse }
          ifelse }
        ifelse }
      ifelse } BD
tryPS3shading
{ /shfill where
  { /ST { STshfill } BD }
  { /ST { STnoshfill } BD }
  ifelse }
{ /ST { STnoshfill } BD }
ifelse
end
%%EndProlog
%%BeginSetup
/DeviceRGB setcolorspace
gl2psdict begin
%%EndSetup
%%Page: 1 1
%%BeginPageSetup
%%EndPageSetup
mark
gsave
1.0 1.0 scale
1 1 1 C
newpath 0 0 moveto 418 0 lineto 418 314 lineto 0 314 lineto
closepath fill
gsave
1.0 1.0 scale
1 1 1 C
newpath 0 0 moveto 418 0 lineto 418 314 lineto 0 314 lineto
closepath fill
newpath 0 0 moveto 418 0 lineto 418 314 lineto 0 314 lineto
closepath clip
1 1 1 C
54.4343 290.447 378.946 34.5008 54.4343 34.5008 T
54.4343 290.447 378.946 290.447 378.946 34.5008 T
0.5 W
0.15 0.15 0.15 C
54.4343 34.5008 LS
54.4343 37.7453 LE
108.52 34.5008 LS
108.52 37.7453 LE
162.605 34.5008 LS
162.605 37.7453 LE
216.69 34.5008 LS
216.69 37.7453 LE
270.776 34.5008 LS
270.776 37.7453 LE
324.861 34.5008 LS
324.861 37.7453 LE
378.946 34.5008 LS
378.946 37.7453 LE
gsave
0.14902 0.14902 0.14902 C
(0) [10] 0 51.4343 19.0024 10 /Helvetica SRX
grestore

gsave
0.14902 0.14902 0.14902 C
(50) [6 10] 0 102.52 19.0024 10 /Helvetica SRX
grestore

gsave
0.14902 0.14902 0.14902 C
(100) [6 6 10] 0 153.605 19.0024 10 /Helvetica SRX
grestore

gsave
0.14902 0.14902 0.14902 C
(150) [6 6 10] 0 207.69 19.0024 10 /Helvetica SRX
grestore

gsave
0.14902 0.14902 0.14902 C
(200) [6 6 10] 0 261.776 19.0024 10 /Helvetica SRX
grestore

gsave
0.14902 0.14902 0.14902 C
(250) [6 6 10] 0 315.861 19.0024 10 /Helvetica SRX
grestore

gsave
0.14902 0.14902 0.14902 C
(300) [6 6 10] 0 369.946 19.0024 10 /Helvetica SRX
grestore

54.4343 34.5008 LS
57.6745 34.5008 LE
54.4343 85.69 LS
57.6745 85.69 LE
54.4343 136.879 LS
57.6745 136.879 LE
54.4343 188.068 LS
57.6745 188.068 LE
54.4343 239.258 LS
57.6745 239.258 LE
54.4343 290.447 LS
57.6745 290.447 LE
gsave
0.14902 0.14902 0.14902 C
(0) [10] 0 43.4418 30.5008 10 /Helvetica SRX
grestore

gsave
0.14902 0.14902 0.14902 C
(0.2) [6 3 10] 0 34.4418 81.69 10 /Helvetica SRX
grestore

gsave
0.14902 0.14902 0.14902 C
(0.4) [6 3 10] 0 34.4418 132.879 10 /Helvetica SRX
grestore

gsave
0.14902 0.14902 0.14902 C
(0.6) [6 3 10] 0 34.4418 184.068 10 /Helvetica SRX
grestore

gsave
0.14902 0.14902 0.14902 C
(0.8) [6 3 10] 0 34.4418 235.258 10 /Helvetica SRX
grestore

gsave
0.14902 0.14902 0.14902 C
(1) [10] 0 43.4418 286.447 10 /Helvetica SRX
grestore

2 LC
[16 0] 0 setdash
54.4343 34.5008 LS
378.946 34.5008 LE
54.4343 34.5008 LS
54.4343 290.447 LE
gsave
0.14902 0.14902 0.14902 C
(Shock energy \(J\)) [7 6 6 6 6 3 6 6 6 4 6 5 3 4 6 10] 0 174.69 5.00243 11 /Helvetica SRX
grestore

gsave
0.14902 0.14902 0.14902 C
(Successes / drops) [7 6 6 6 6 5 5 6 5 3 3 3 6 4 6 6 10] 90 26.4418 118.474 11 /Helvetica SRX
grestore

gsave
0 0 0 C
(Fraction of successful drops) [7 4 6 6 4 3 7 7 3 7 4 3 6 7 6 6 6 6 6 4 7 3 3 7 4 7 7 10] 0 140.69 303.447 11 /Helvetica-Bold SRX
grestore

0 LC
1 LJ
[] 0 setdash
0.34524 0.34524 0.34524 C
54.4343 290.447 LS
58.7611 34.5008 LE
0.45753 0.45753 0.45753 C
54.4343 290.447 LS
60.9245 264.852 L
67.4148 239.258 L
80.3953 188.068 L
86.8855 162.474 L
119.337 34.5008 LE
0.70191 0.70191 0.70191 C
54.4343 290.447 LS
106.356 290.447 L
140.971 188.068 L
158.278 34.5008 LE
0.31792 0.31792 0.31792 C
54.4343 290.447 LS
162.605 290.447 L
184.239 262.008 L
205.873 290.447 L
249.142 136.879 L
292.41 98.4873 LE
0.55814 0.55814 0.55814 C
54.4343 290.447 LS
106.356 290.447 L
132.317 290.447 L
340.005 188.068 LE
grestore
gsave
1.0 1.0 scale
newpath 0 0 moveto 418 0 lineto 418 314 lineto 0 314 lineto
closepath clip
1 1 1 C
277.92 282.441 370.941 216.398 277.92 216.398 T
277.92 282.441 370.941 282.441 370.941 216.398 T
0.5 W
2 LC
[16 0] 0 setdash
0.15 0.15 0.15 C
277.92 216.398 LS
370.941 216.398 LE
277.92 282.441 LS
370.941 282.441 LE
277.92 216.398 LS
277.92 282.441 LE
370.941 216.398 LS
370.941 282.441 LE
0 LC
1 LJ
[] 0 setdash
0.34524 0.34524 0.34524 C
281.923 274.236 LS
301.936 274.236 LE
gsave
0 0 0 C
(1 connection) [5 2 5 5 5 5 5 5 3 2 5 10] 0 305.939 270.236 9 /Helvetica SRX
grestore

0.45753 0.45753 0.45753 C
281.923 261.828 LS
301.936 261.828 LE
gsave
0 0 0 C
(3 connections) [5 2 5 5 5 5 5 5 3 2 5 5 10] 0 305.939 257.828 9 /Helvetica SRX
grestore

0.70191 0.70191 0.70191 C
281.923 249.42 LS
301.936 249.42 LE
gsave
0 0 0 C
(5 connections) [5 2 5 5 5 5 5 5 3 2 5 5 10] 0 305.939 245.42 9 /Helvetica SRX
grestore

0.31792 0.31792 0.31792 C
281.923 237.012 LS
301.936 237.012 LE
gsave
0 0 0 C
(8 connections) [5 2 5 5 5 5 5 5 3 2 5 5 10] 0 305.939 233.012 9 /Helvetica SRX
grestore

0.55814 0.55814 0.55814 C
281.923 224.603 LS
301.936 224.603 LE
gsave
0 0 0 C
(12 connections) [5 5 2 5 5 5 5 5 5 3 2 5 5 10] 0 305.939 220.603 9 /Helvetica SRX
grestore

grestore
grestore
showpage
cleartomark
%%PageTrailer
%%Trailer
end
%%EOF
